…
num_aisles_df = 
  instacart %>%
  count(aisle) %>%
  rename(.data = ., num_items_ordered = n) %>%
  arrange(desc(num_items_ordered))
```

``` r
num_aisles_df %>%
  filter(.data = ., num_items_ordered > 10000)
```

    ## # A tibble: 39 x 2
    ##    aisle                         num_items_ordered
    ##    <chr>                                     <int>
    ##  1 fresh vegetables                         150609
    ##  2 fresh fruits                             150473
    ##  3 packaged vegetables fruits                78493
    ##  4 yogurt                                    55240
    ##  5 packaged cheese                           41699
    ##  6 water seltzer sparkling water             36617
    ##  7 milk                                      32644
    ##  8 chips pretzels                            31269
    ##  9 soy lactosefree                           26240
    ## 10 bread                                     23635
    ## # … with 29 more rows
…
